File:
 # # . .  # . .
92010000 080000

 . # . . . # . . .  S T A R T    . . . . . . . . . # #  ENTER
000100000005000000 7374617274   000000000000000000002A 

 # # . . . # . . .  U P          . . . . . . . . . # #  W
400100000002000000 7570         000000000000000000C055

 # # . . . # . . .  L E F T      . . . . . . . . . # #  A
400100000004000000 6C656674     0000000000000000004050

 # # . . . # . . .  D O W N      . . . . . . . . . # #  S
400100000004000000 646F776E     000000000000000000C054

 # # . . . # . . .  A T T A C K  . . . . . . . . . # #  Q
400100000006000000 61747461636B 0000000000000000004054 

 # # . . . # . . .  B A C K      . . . . . . . . . # #  ESC
400100000004000000 6261636B     000000000000000000003B

 # # . . . # . . .  J U M P      . . . . . . . . . # #  E
400100000004000000 6A756D70     0000000000000000004051

 # # . . . # . . .  R I G H T    . . . . . . . . . # #  D
400100000005000000 7269676874   0000000000000000000051

 #
40

92010000 08000000 01000000 05000000
73746172 74000000 00000000 004001E0
40010000 00020000 00757000 00000000
00000000 005A4001 00000004 0000006C
65667400 00000000 00000000 80594001
00000004 00000064 6F776E00 00000000
00000000 40594001 00000006 00000061
74746163 6B000000 00000000 002000E0
40010000 00040000 00626163 6B000000
00000000 002001E0 40010000 00040000
006A756D 70000000 00000000 008000E0
40010000 00050000 00726967 68740000
00000000 000000C0 5940

0 

Controls:
A     - L_JOY_L
D     - L_JOY_R
W     - L_JOY_U
S     - L_JOY_D
Q     - FACE_1
E     - FACE_4
ENTER - START
ESC   - SELECT